%TF.GenerationSoftware,KiCad,Pcbnew,(5.1.7)-1*%
%TF.CreationDate,2020-11-16T15:44:02+01:00*%
%TF.ProjectId,SD_Card_PCB,53445f43-6172-4645-9f50-43422e6b6963,rev?*%
%TF.SameCoordinates,Original*%
%TF.FileFunction,Legend,Bot*%
%TF.FilePolarity,Positive*%
%FSLAX46Y46*%
G04 Gerber Fmt 4.6, Leading zero omitted, Abs format (unit mm)*
G04 Created by KiCad (PCBNEW (5.1.7)-1) date 2020-11-16 15:44:02*
%MOMM*%
%LPD*%
G01*
G04 APERTURE LIST*
%ADD10C,0.125000*%
%ADD11C,0.050000*%
G04 APERTURE END LIST*
D10*
X130680590Y-95466790D02*
X130180590Y-95466790D01*
X130180590Y-95585838D01*
X130204400Y-95657266D01*
X130252019Y-95704885D01*
X130299638Y-95728695D01*
X130394876Y-95752504D01*
X130466304Y-95752504D01*
X130561542Y-95728695D01*
X130609161Y-95704885D01*
X130656780Y-95657266D01*
X130680590Y-95585838D01*
X130680590Y-95466790D01*
X130537733Y-95942980D02*
X130537733Y-96181076D01*
X130680590Y-95895361D02*
X130180590Y-96062028D01*
X130680590Y-96228695D01*
X130180590Y-96323933D02*
X130180590Y-96609647D01*
X130680590Y-96466790D02*
X130180590Y-96466790D01*
X130680590Y-97038219D02*
X130680590Y-96752504D01*
X130680590Y-96895361D02*
X130180590Y-96895361D01*
X130252019Y-96847742D01*
X130299638Y-96800123D01*
X130323447Y-96752504D01*
X130680590Y-93002990D02*
X130180590Y-93002990D01*
X130180590Y-93122038D01*
X130204400Y-93193466D01*
X130252019Y-93241085D01*
X130299638Y-93264895D01*
X130394876Y-93288704D01*
X130466304Y-93288704D01*
X130561542Y-93264895D01*
X130609161Y-93241085D01*
X130656780Y-93193466D01*
X130680590Y-93122038D01*
X130680590Y-93002990D01*
X130537733Y-93479180D02*
X130537733Y-93717276D01*
X130680590Y-93431561D02*
X130180590Y-93598228D01*
X130680590Y-93764895D01*
X130180590Y-93860133D02*
X130180590Y-94145847D01*
X130680590Y-94002990D02*
X130180590Y-94002990D01*
X130180590Y-94407752D02*
X130180590Y-94455371D01*
X130204400Y-94502990D01*
X130228209Y-94526800D01*
X130275828Y-94550609D01*
X130371066Y-94574419D01*
X130490114Y-94574419D01*
X130585352Y-94550609D01*
X130632971Y-94526800D01*
X130656780Y-94502990D01*
X130680590Y-94455371D01*
X130680590Y-94407752D01*
X130656780Y-94360133D01*
X130632971Y-94336323D01*
X130585352Y-94312514D01*
X130490114Y-94288704D01*
X130371066Y-94288704D01*
X130275828Y-94312514D01*
X130228209Y-94336323D01*
X130204400Y-94360133D01*
X130180590Y-94407752D01*
X130155190Y-90593942D02*
X130655190Y-90760609D01*
X130155190Y-90927276D01*
X130631380Y-91070133D02*
X130655190Y-91141561D01*
X130655190Y-91260609D01*
X130631380Y-91308228D01*
X130607571Y-91332038D01*
X130559952Y-91355847D01*
X130512333Y-91355847D01*
X130464714Y-91332038D01*
X130440904Y-91308228D01*
X130417095Y-91260609D01*
X130393285Y-91165371D01*
X130369476Y-91117752D01*
X130345666Y-91093942D01*
X130298047Y-91070133D01*
X130250428Y-91070133D01*
X130202809Y-91093942D01*
X130179000Y-91117752D01*
X130155190Y-91165371D01*
X130155190Y-91284419D01*
X130179000Y-91355847D01*
X130631380Y-91546323D02*
X130655190Y-91617752D01*
X130655190Y-91736800D01*
X130631380Y-91784419D01*
X130607571Y-91808228D01*
X130559952Y-91832038D01*
X130512333Y-91832038D01*
X130464714Y-91808228D01*
X130440904Y-91784419D01*
X130417095Y-91736800D01*
X130393285Y-91641561D01*
X130369476Y-91593942D01*
X130345666Y-91570133D01*
X130298047Y-91546323D01*
X130250428Y-91546323D01*
X130202809Y-91570133D01*
X130179000Y-91593942D01*
X130155190Y-91641561D01*
X130155190Y-91760609D01*
X130179000Y-91832038D01*
X130709171Y-88449980D02*
X130732980Y-88426171D01*
X130756790Y-88354742D01*
X130756790Y-88307123D01*
X130732980Y-88235695D01*
X130685361Y-88188076D01*
X130637742Y-88164266D01*
X130542504Y-88140457D01*
X130471076Y-88140457D01*
X130375838Y-88164266D01*
X130328219Y-88188076D01*
X130280600Y-88235695D01*
X130256790Y-88307123D01*
X130256790Y-88354742D01*
X130280600Y-88426171D01*
X130304409Y-88449980D01*
X130756790Y-88902361D02*
X130756790Y-88664266D01*
X130256790Y-88664266D01*
X130756790Y-89069028D02*
X130256790Y-89069028D01*
X130756790Y-89354742D02*
X130471076Y-89140457D01*
X130256790Y-89354742D02*
X130542504Y-89069028D01*
X130155190Y-85617133D02*
X130655190Y-85783800D01*
X130155190Y-85950466D01*
X130655190Y-86117133D02*
X130155190Y-86117133D01*
X130155190Y-86236180D01*
X130179000Y-86307609D01*
X130226619Y-86355228D01*
X130274238Y-86379038D01*
X130369476Y-86402847D01*
X130440904Y-86402847D01*
X130536142Y-86379038D01*
X130583761Y-86355228D01*
X130631380Y-86307609D01*
X130655190Y-86236180D01*
X130655190Y-86117133D01*
X130655190Y-86617133D02*
X130155190Y-86617133D01*
X130155190Y-86736180D01*
X130179000Y-86807609D01*
X130226619Y-86855228D01*
X130274238Y-86879038D01*
X130369476Y-86902847D01*
X130440904Y-86902847D01*
X130536142Y-86879038D01*
X130583761Y-86855228D01*
X130631380Y-86807609D01*
X130655190Y-86736180D01*
X130655190Y-86617133D01*
X130582171Y-83566047D02*
X130605980Y-83542238D01*
X130629790Y-83470809D01*
X130629790Y-83423190D01*
X130605980Y-83351761D01*
X130558361Y-83304142D01*
X130510742Y-83280333D01*
X130415504Y-83256523D01*
X130344076Y-83256523D01*
X130248838Y-83280333D01*
X130201219Y-83304142D01*
X130153600Y-83351761D01*
X130129790Y-83423190D01*
X130129790Y-83470809D01*
X130153600Y-83542238D01*
X130177409Y-83566047D01*
X130629790Y-83780333D02*
X130129790Y-83780333D01*
X130486933Y-83947000D01*
X130129790Y-84113666D01*
X130629790Y-84113666D01*
X130629790Y-84351761D02*
X130129790Y-84351761D01*
X130129790Y-84470809D01*
X130153600Y-84542238D01*
X130201219Y-84589857D01*
X130248838Y-84613666D01*
X130344076Y-84637476D01*
X130415504Y-84637476D01*
X130510742Y-84613666D01*
X130558361Y-84589857D01*
X130605980Y-84542238D01*
X130629790Y-84470809D01*
X130629790Y-84351761D01*
X130297071Y-81221295D02*
X130320880Y-81197485D01*
X130344690Y-81126057D01*
X130344690Y-81078438D01*
X130320880Y-81007009D01*
X130273261Y-80959390D01*
X130225642Y-80935580D01*
X130130404Y-80911771D01*
X130058976Y-80911771D01*
X129963738Y-80935580D01*
X129916119Y-80959390D01*
X129868500Y-81007009D01*
X129844690Y-81078438D01*
X129844690Y-81126057D01*
X129868500Y-81197485D01*
X129892309Y-81221295D01*
X130344690Y-81435580D02*
X129844690Y-81435580D01*
X129844690Y-81554628D01*
X129868500Y-81626057D01*
X129916119Y-81673676D01*
X129963738Y-81697485D01*
X130058976Y-81721295D01*
X130130404Y-81721295D01*
X130225642Y-81697485D01*
X130273261Y-81673676D01*
X130320880Y-81626057D01*
X130344690Y-81554628D01*
X130344690Y-81435580D01*
X129797071Y-81768914D02*
X130439928Y-82197485D01*
X131219690Y-80709390D02*
X130719690Y-80709390D01*
X130719690Y-80828438D01*
X130743500Y-80899866D01*
X130791119Y-80947485D01*
X130838738Y-80971295D01*
X130933976Y-80995104D01*
X131005404Y-80995104D01*
X131100642Y-80971295D01*
X131148261Y-80947485D01*
X131195880Y-80899866D01*
X131219690Y-80828438D01*
X131219690Y-80709390D01*
X131076833Y-81185580D02*
X131076833Y-81423676D01*
X131219690Y-81137961D02*
X130719690Y-81304628D01*
X131219690Y-81471295D01*
X130719690Y-81566533D02*
X130719690Y-81852247D01*
X131219690Y-81709390D02*
X130719690Y-81709390D01*
X130719690Y-81971295D02*
X130719690Y-82280819D01*
X130910166Y-82114152D01*
X130910166Y-82185580D01*
X130933976Y-82233200D01*
X130957785Y-82257009D01*
X131005404Y-82280819D01*
X131124452Y-82280819D01*
X131172071Y-82257009D01*
X131195880Y-82233200D01*
X131219690Y-82185580D01*
X131219690Y-82042723D01*
X131195880Y-81995104D01*
X131172071Y-81971295D01*
X130629790Y-78093190D02*
X130129790Y-78093190D01*
X130129790Y-78212238D01*
X130153600Y-78283666D01*
X130201219Y-78331285D01*
X130248838Y-78355095D01*
X130344076Y-78378904D01*
X130415504Y-78378904D01*
X130510742Y-78355095D01*
X130558361Y-78331285D01*
X130605980Y-78283666D01*
X130629790Y-78212238D01*
X130629790Y-78093190D01*
X130486933Y-78569380D02*
X130486933Y-78807476D01*
X130629790Y-78521761D02*
X130129790Y-78688428D01*
X130629790Y-78855095D01*
X130129790Y-78950333D02*
X130129790Y-79236047D01*
X130629790Y-79093190D02*
X130129790Y-79093190D01*
X130177409Y-79378904D02*
X130153600Y-79402714D01*
X130129790Y-79450333D01*
X130129790Y-79569380D01*
X130153600Y-79617000D01*
X130177409Y-79640809D01*
X130225028Y-79664619D01*
X130272647Y-79664619D01*
X130344076Y-79640809D01*
X130629790Y-79355095D01*
X130629790Y-79664619D01*
X122959750Y-91671009D02*
X122959750Y-92171009D01*
X123078798Y-92171009D01*
X123150226Y-92147200D01*
X123197845Y-92099580D01*
X123221655Y-92051961D01*
X123245464Y-91956723D01*
X123245464Y-91885295D01*
X123221655Y-91790057D01*
X123197845Y-91742438D01*
X123150226Y-91694819D01*
X123078798Y-91671009D01*
X122959750Y-91671009D01*
X123435940Y-91813866D02*
X123674036Y-91813866D01*
X123388321Y-91671009D02*
X123554988Y-92171009D01*
X123721655Y-91671009D01*
X123816893Y-92171009D02*
X124102607Y-92171009D01*
X123959750Y-91671009D02*
X123959750Y-92171009D01*
X124531179Y-91671009D02*
X124245464Y-91671009D01*
X124388321Y-91671009D02*
X124388321Y-92171009D01*
X124340702Y-92099580D01*
X124293083Y-92051961D01*
X124245464Y-92028152D01*
X122959750Y-90528009D02*
X122959750Y-91028009D01*
X123078798Y-91028009D01*
X123150226Y-91004200D01*
X123197845Y-90956580D01*
X123221655Y-90908961D01*
X123245464Y-90813723D01*
X123245464Y-90742295D01*
X123221655Y-90647057D01*
X123197845Y-90599438D01*
X123150226Y-90551819D01*
X123078798Y-90528009D01*
X122959750Y-90528009D01*
X123435940Y-90670866D02*
X123674036Y-90670866D01*
X123388321Y-90528009D02*
X123554988Y-91028009D01*
X123721655Y-90528009D01*
X123816893Y-91028009D02*
X124102607Y-91028009D01*
X123959750Y-90528009D02*
X123959750Y-91028009D01*
X124364512Y-91028009D02*
X124412131Y-91028009D01*
X124459750Y-91004200D01*
X124483560Y-90980390D01*
X124507369Y-90932771D01*
X124531179Y-90837533D01*
X124531179Y-90718485D01*
X124507369Y-90623247D01*
X124483560Y-90575628D01*
X124459750Y-90551819D01*
X124412131Y-90528009D01*
X124364512Y-90528009D01*
X124316893Y-90551819D01*
X124293083Y-90575628D01*
X124269274Y-90623247D01*
X124245464Y-90718485D01*
X124245464Y-90837533D01*
X124269274Y-90932771D01*
X124293083Y-90980390D01*
X124316893Y-91004200D01*
X124364512Y-91028009D01*
X123039902Y-89910409D02*
X123206569Y-89410409D01*
X123373236Y-89910409D01*
X123516093Y-89434219D02*
X123587521Y-89410409D01*
X123706569Y-89410409D01*
X123754188Y-89434219D01*
X123777998Y-89458028D01*
X123801807Y-89505647D01*
X123801807Y-89553266D01*
X123777998Y-89600885D01*
X123754188Y-89624695D01*
X123706569Y-89648504D01*
X123611331Y-89672314D01*
X123563712Y-89696123D01*
X123539902Y-89719933D01*
X123516093Y-89767552D01*
X123516093Y-89815171D01*
X123539902Y-89862790D01*
X123563712Y-89886600D01*
X123611331Y-89910409D01*
X123730379Y-89910409D01*
X123801807Y-89886600D01*
X123992283Y-89434219D02*
X124063712Y-89410409D01*
X124182760Y-89410409D01*
X124230379Y-89434219D01*
X124254188Y-89458028D01*
X124277998Y-89505647D01*
X124277998Y-89553266D01*
X124254188Y-89600885D01*
X124230379Y-89624695D01*
X124182760Y-89648504D01*
X124087521Y-89672314D01*
X124039902Y-89696123D01*
X124016093Y-89719933D01*
X123992283Y-89767552D01*
X123992283Y-89815171D01*
X124016093Y-89862790D01*
X124039902Y-89886600D01*
X124087521Y-89910409D01*
X124206569Y-89910409D01*
X124277998Y-89886600D01*
X123410540Y-88264228D02*
X123386731Y-88240419D01*
X123315302Y-88216609D01*
X123267683Y-88216609D01*
X123196255Y-88240419D01*
X123148636Y-88288038D01*
X123124826Y-88335657D01*
X123101017Y-88430895D01*
X123101017Y-88502323D01*
X123124826Y-88597561D01*
X123148636Y-88645180D01*
X123196255Y-88692800D01*
X123267683Y-88716609D01*
X123315302Y-88716609D01*
X123386731Y-88692800D01*
X123410540Y-88668990D01*
X123862921Y-88216609D02*
X123624826Y-88216609D01*
X123624826Y-88716609D01*
X124029588Y-88216609D02*
X124029588Y-88716609D01*
X124315302Y-88216609D02*
X124101017Y-88502323D01*
X124315302Y-88716609D02*
X124029588Y-88430895D01*
X122112921Y-87726009D02*
X122279588Y-87226009D01*
X122446255Y-87726009D01*
X122612921Y-87226009D02*
X122612921Y-87726009D01*
X122731969Y-87726009D01*
X122803398Y-87702200D01*
X122851017Y-87654580D01*
X122874826Y-87606961D01*
X122898636Y-87511723D01*
X122898636Y-87440295D01*
X122874826Y-87345057D01*
X122851017Y-87297438D01*
X122803398Y-87249819D01*
X122731969Y-87226009D01*
X122612921Y-87226009D01*
X123112921Y-87226009D02*
X123112921Y-87726009D01*
X123231969Y-87726009D01*
X123303398Y-87702200D01*
X123351017Y-87654580D01*
X123374826Y-87606961D01*
X123398636Y-87511723D01*
X123398636Y-87440295D01*
X123374826Y-87345057D01*
X123351017Y-87297438D01*
X123303398Y-87249819D01*
X123231969Y-87226009D01*
X123112921Y-87226009D01*
X123446255Y-87773628D02*
X123874826Y-87130771D01*
X124208160Y-87702200D02*
X124160540Y-87726009D01*
X124089112Y-87726009D01*
X124017683Y-87702200D01*
X123970064Y-87654580D01*
X123946255Y-87606961D01*
X123922445Y-87511723D01*
X123922445Y-87440295D01*
X123946255Y-87345057D01*
X123970064Y-87297438D01*
X124017683Y-87249819D01*
X124089112Y-87226009D01*
X124136731Y-87226009D01*
X124208160Y-87249819D01*
X124231969Y-87273628D01*
X124231969Y-87440295D01*
X124136731Y-87440295D01*
X124446255Y-87226009D02*
X124446255Y-87726009D01*
X124731969Y-87226009D01*
X124731969Y-87726009D01*
X124970064Y-87226009D02*
X124970064Y-87726009D01*
X125089112Y-87726009D01*
X125160540Y-87702200D01*
X125208160Y-87654580D01*
X125231969Y-87606961D01*
X125255779Y-87511723D01*
X125255779Y-87440295D01*
X125231969Y-87345057D01*
X125208160Y-87297438D01*
X125160540Y-87249819D01*
X125089112Y-87226009D01*
X124970064Y-87226009D01*
X123352607Y-86206828D02*
X123328798Y-86183019D01*
X123257369Y-86159209D01*
X123209750Y-86159209D01*
X123138321Y-86183019D01*
X123090702Y-86230638D01*
X123066893Y-86278257D01*
X123043083Y-86373495D01*
X123043083Y-86444923D01*
X123066893Y-86540161D01*
X123090702Y-86587780D01*
X123138321Y-86635400D01*
X123209750Y-86659209D01*
X123257369Y-86659209D01*
X123328798Y-86635400D01*
X123352607Y-86611590D01*
X123566893Y-86159209D02*
X123566893Y-86659209D01*
X123733560Y-86302066D01*
X123900226Y-86659209D01*
X123900226Y-86159209D01*
X124138321Y-86159209D02*
X124138321Y-86659209D01*
X124257369Y-86659209D01*
X124328798Y-86635400D01*
X124376417Y-86587780D01*
X124400226Y-86540161D01*
X124424036Y-86444923D01*
X124424036Y-86373495D01*
X124400226Y-86278257D01*
X124376417Y-86230638D01*
X124328798Y-86183019D01*
X124257369Y-86159209D01*
X124138321Y-86159209D01*
X122527998Y-85063828D02*
X122504188Y-85040019D01*
X122432760Y-85016209D01*
X122385140Y-85016209D01*
X122313712Y-85040019D01*
X122266093Y-85087638D01*
X122242283Y-85135257D01*
X122218474Y-85230495D01*
X122218474Y-85301923D01*
X122242283Y-85397161D01*
X122266093Y-85444780D01*
X122313712Y-85492400D01*
X122385140Y-85516209D01*
X122432760Y-85516209D01*
X122504188Y-85492400D01*
X122527998Y-85468590D01*
X122742283Y-85016209D02*
X122742283Y-85516209D01*
X122861331Y-85516209D01*
X122932760Y-85492400D01*
X122980379Y-85444780D01*
X123004188Y-85397161D01*
X123027998Y-85301923D01*
X123027998Y-85230495D01*
X123004188Y-85135257D01*
X122980379Y-85087638D01*
X122932760Y-85040019D01*
X122861331Y-85016209D01*
X122742283Y-85016209D01*
X123075617Y-85563828D02*
X123504188Y-84920971D01*
X123575617Y-85016209D02*
X123575617Y-85516209D01*
X123694664Y-85516209D01*
X123766093Y-85492400D01*
X123813712Y-85444780D01*
X123837521Y-85397161D01*
X123861331Y-85301923D01*
X123861331Y-85230495D01*
X123837521Y-85135257D01*
X123813712Y-85087638D01*
X123766093Y-85040019D01*
X123694664Y-85016209D01*
X123575617Y-85016209D01*
X124051807Y-85159066D02*
X124289902Y-85159066D01*
X124004188Y-85016209D02*
X124170855Y-85516209D01*
X124337521Y-85016209D01*
X124432760Y-85516209D02*
X124718474Y-85516209D01*
X124575617Y-85016209D02*
X124575617Y-85516209D01*
X124837521Y-85516209D02*
X125147045Y-85516209D01*
X124980379Y-85325733D01*
X125051807Y-85325733D01*
X125099426Y-85301923D01*
X125123236Y-85278114D01*
X125147045Y-85230495D01*
X125147045Y-85111447D01*
X125123236Y-85063828D01*
X125099426Y-85040019D01*
X125051807Y-85016209D01*
X124908950Y-85016209D01*
X124861331Y-85040019D01*
X124837521Y-85063828D01*
X122908950Y-83924009D02*
X122908950Y-84424009D01*
X123027998Y-84424009D01*
X123099426Y-84400200D01*
X123147045Y-84352580D01*
X123170855Y-84304961D01*
X123194664Y-84209723D01*
X123194664Y-84138295D01*
X123170855Y-84043057D01*
X123147045Y-83995438D01*
X123099426Y-83947819D01*
X123027998Y-83924009D01*
X122908950Y-83924009D01*
X123385140Y-84066866D02*
X123623236Y-84066866D01*
X123337521Y-83924009D02*
X123504188Y-84424009D01*
X123670855Y-83924009D01*
X123766093Y-84424009D02*
X124051807Y-84424009D01*
X123908950Y-83924009D02*
X123908950Y-84424009D01*
X124194664Y-84376390D02*
X124218474Y-84400200D01*
X124266093Y-84424009D01*
X124385140Y-84424009D01*
X124432760Y-84400200D01*
X124456569Y-84376390D01*
X124480379Y-84328771D01*
X124480379Y-84281152D01*
X124456569Y-84209723D01*
X124170855Y-83924009D01*
X124480379Y-83924009D01*
D11*
%TO.C,X1*%
X109620000Y-82570000D02*
X109620000Y-83170000D01*
X107620000Y-82370000D02*
X102020000Y-82370000D01*
X108420000Y-83170000D02*
X107620000Y-82370000D01*
X112220000Y-83670000D02*
X111120000Y-82570000D01*
X109620000Y-82570000D02*
X111120000Y-82570000D01*
X108420000Y-83170000D02*
X109620000Y-83170000D01*
X117020000Y-83670000D02*
X117020000Y-93370000D01*
X112220000Y-83670000D02*
X117020000Y-83670000D01*
X102020000Y-82370000D02*
X102020000Y-93370000D01*
X102020000Y-93370000D02*
X117020000Y-93370000D01*
%TD*%
M02*
