M48
; DRILL file {KiCad (5.1.7)-1} date 11/16/20 15:44:05
; FORMAT={-:-/ absolute / inch / decimal}
; #@! TF.CreationDate,2020-11-16T15:44:05+01:00
; #@! TF.GenerationSoftware,Kicad,Pcbnew,(5.1.7)-1
; #@! TF.FileFunction,Plated,1,2,PTH
FMAT,2
INCH
T1C0.0157
T2C0.0394
%
G90
G05
T1
X4.5935Y-3.6331
X4.5953Y-3.5937
X4.5964Y-3.5504
X4.5964Y-3.5031
X4.5972Y-3.4205
X4.5985Y-3.4638
X4.5989Y-3.3772
X4.6Y-3.3323
X4.6464Y-3.5504
X4.6964Y-3.5504
X4.7464Y-3.5504
X4.7964Y-3.5504
X4.849Y-3.5504
X4.899Y-3.5504
X4.9464Y-3.5504
X4.9964Y-3.5504
X5.0464Y-3.5504
T2
X5.233Y-3.099
X5.233Y-3.199
X5.233Y-3.299
X5.233Y-3.399
X5.233Y-3.499
X5.233Y-3.599
X5.233Y-3.699
X5.233Y-3.799
T0
M30
