%TF.GenerationSoftware,KiCad,Pcbnew,(5.1.7)-1*%
%TF.CreationDate,2020-11-16T15:44:02+01:00*%
%TF.ProjectId,SD_Card_PCB,53445f43-6172-4645-9f50-43422e6b6963,rev?*%
%TF.SameCoordinates,Original*%
%TF.FileFunction,Soldermask,Bot*%
%TF.FilePolarity,Negative*%
%FSLAX46Y46*%
G04 Gerber Fmt 4.6, Leading zero omitted, Abs format (unit mm)*
G04 Created by KiCad (PCBNEW (5.1.7)-1) date 2020-11-16 15:44:02*
%MOMM*%
%LPD*%
G01*
G04 APERTURE LIST*
%ADD10O,1.800000X1.800000*%
G04 APERTURE END LIST*
%TO.C,X1*%
G36*
G01*
X113020000Y-91920000D02*
X115920000Y-91920000D01*
G75*
G02*
X115970000Y-91970000I0J-50000D01*
G01*
X115970000Y-92770000D01*
G75*
G02*
X115920000Y-92820000I-50000J0D01*
G01*
X113020000Y-92820000D01*
G75*
G02*
X112970000Y-92770000I0J50000D01*
G01*
X112970000Y-91970000D01*
G75*
G02*
X113020000Y-91920000I50000J0D01*
G01*
G37*
G36*
G01*
X113020000Y-90820000D02*
X115920000Y-90820000D01*
G75*
G02*
X115970000Y-90870000I0J-50000D01*
G01*
X115970000Y-91670000D01*
G75*
G02*
X115920000Y-91720000I-50000J0D01*
G01*
X113020000Y-91720000D01*
G75*
G02*
X112970000Y-91670000I0J50000D01*
G01*
X112970000Y-90870000D01*
G75*
G02*
X113020000Y-90820000I50000J0D01*
G01*
G37*
G36*
G01*
X115920000Y-89520000D02*
X113020000Y-89520000D01*
G75*
G02*
X112970000Y-89470000I0J50000D01*
G01*
X112970000Y-88670000D01*
G75*
G02*
X113020000Y-88620000I50000J0D01*
G01*
X115920000Y-88620000D01*
G75*
G02*
X115970000Y-88670000I0J-50000D01*
G01*
X115970000Y-89470000D01*
G75*
G02*
X115920000Y-89520000I-50000J0D01*
G01*
G37*
G36*
G01*
X115920000Y-90620000D02*
X112720000Y-90620000D01*
G75*
G02*
X112670000Y-90570000I0J50000D01*
G01*
X112670000Y-89770000D01*
G75*
G02*
X112720000Y-89720000I50000J0D01*
G01*
X115920000Y-89720000D01*
G75*
G02*
X115970000Y-89770000I0J-50000D01*
G01*
X115970000Y-90570000D01*
G75*
G02*
X115920000Y-90620000I-50000J0D01*
G01*
G37*
G36*
G01*
X115920000Y-87320000D02*
X113020000Y-87320000D01*
G75*
G02*
X112970000Y-87270000I0J50000D01*
G01*
X112970000Y-86470000D01*
G75*
G02*
X113020000Y-86420000I50000J0D01*
G01*
X115920000Y-86420000D01*
G75*
G02*
X115970000Y-86470000I0J-50000D01*
G01*
X115970000Y-87270000D01*
G75*
G02*
X115920000Y-87320000I-50000J0D01*
G01*
G37*
G36*
G01*
X115920000Y-88420000D02*
X112720000Y-88420000D01*
G75*
G02*
X112670000Y-88370000I0J50000D01*
G01*
X112670000Y-87570000D01*
G75*
G02*
X112720000Y-87520000I50000J0D01*
G01*
X115920000Y-87520000D01*
G75*
G02*
X115970000Y-87570000I0J-50000D01*
G01*
X115970000Y-88370000D01*
G75*
G02*
X115920000Y-88420000I-50000J0D01*
G01*
G37*
G36*
G01*
X113020000Y-85320000D02*
X115920000Y-85320000D01*
G75*
G02*
X115970000Y-85370000I0J-50000D01*
G01*
X115970000Y-86170000D01*
G75*
G02*
X115920000Y-86220000I-50000J0D01*
G01*
X113020000Y-86220000D01*
G75*
G02*
X112970000Y-86170000I0J50000D01*
G01*
X112970000Y-85370000D01*
G75*
G02*
X113020000Y-85320000I50000J0D01*
G01*
G37*
G36*
G01*
X113020000Y-84220000D02*
X115920000Y-84220000D01*
G75*
G02*
X115970000Y-84270000I0J-50000D01*
G01*
X115970000Y-85070000D01*
G75*
G02*
X115920000Y-85120000I-50000J0D01*
G01*
X113020000Y-85120000D01*
G75*
G02*
X112970000Y-85070000I0J50000D01*
G01*
X112970000Y-84270000D01*
G75*
G02*
X113020000Y-84220000I50000J0D01*
G01*
G37*
%TD*%
D10*
%TO.C,J1*%
X132918200Y-78714600D03*
X132918200Y-81254600D03*
X132918200Y-83794600D03*
X132918200Y-86334600D03*
X132918200Y-88874600D03*
X132918200Y-91414600D03*
X132918200Y-93954600D03*
G36*
G01*
X133818200Y-95644600D02*
X133818200Y-97344600D01*
G75*
G02*
X133768200Y-97394600I-50000J0D01*
G01*
X132068200Y-97394600D01*
G75*
G02*
X132018200Y-97344600I0J50000D01*
G01*
X132018200Y-95644600D01*
G75*
G02*
X132068200Y-95594600I50000J0D01*
G01*
X133768200Y-95594600D01*
G75*
G02*
X133818200Y-95644600I0J-50000D01*
G01*
G37*
%TD*%
M02*
