(module YouTube_Logo (layer F.Cu) (tedit 0)
  (fp_text reference G*** (at 0 0) (layer F.SilkS) hide
    (effects (font (size 1.524 1.524) (thickness 0.3)))
  )
  (fp_text value LOGO (at 0.75 0) (layer F.SilkS) hide
    (effects (font (size 1.524 1.524) (thickness 0.3)))
  )
  (fp_poly (pts (xy -2.281766 -0.740492) (xy -2.14244 -0.740219) (xy -2.018933 -0.739443) (xy -1.910138 -0.738091)
    (xy -1.814948 -0.736088) (xy -1.732254 -0.73336) (xy -1.660948 -0.729834) (xy -1.599923 -0.725435)
    (xy -1.548071 -0.72009) (xy -1.504283 -0.713724) (xy -1.467452 -0.706263) (xy -1.436471 -0.697634)
    (xy -1.41023 -0.687762) (xy -1.396622 -0.681376) (xy -1.358517 -0.65596) (xy -1.321422 -0.620734)
    (xy -1.289943 -0.580864) (xy -1.268686 -0.54152) (xy -1.266423 -0.535265) (xy -1.252772 -0.482859)
    (xy -1.241269 -0.416206) (xy -1.231937 -0.337857) (xy -1.224799 -0.250366) (xy -1.219878 -0.156283)
    (xy -1.217196 -0.058161) (xy -1.216778 0.041447) (xy -1.218647 0.13999) (xy -1.222825 0.234916)
    (xy -1.229335 0.323672) (xy -1.238201 0.403706) (xy -1.249446 0.472467) (xy -1.256993 0.505886)
    (xy -1.281058 0.571042) (xy -1.316946 0.624385) (xy -1.364926 0.666133) (xy -1.42527 0.696506)
    (xy -1.49825 0.715724) (xy -1.519767 0.718978) (xy -1.568496 0.724168) (xy -1.631853 0.729072)
    (xy -1.707535 0.733626) (xy -1.793238 0.737763) (xy -1.886659 0.741418) (xy -1.985493 0.744524)
    (xy -2.087437 0.747016) (xy -2.190188 0.748829) (xy -2.291442 0.749896) (xy -2.388895 0.750153)
    (xy -2.480244 0.749532) (xy -2.548466 0.748334) (xy -2.613693 0.746418) (xy -2.683842 0.743675)
    (xy -2.755948 0.740283) (xy -2.827049 0.736418) (xy -2.894183 0.732257) (xy -2.954385 0.727975)
    (xy -3.004694 0.723749) (xy -3.042145 0.719755) (xy -3.052233 0.718359) (xy -3.128617 0.700853)
    (xy -3.191558 0.673522) (xy -3.241681 0.635965) (xy -3.279611 0.587782) (xy -3.29179 0.56485)
    (xy -3.308503 0.518448) (xy -3.322636 0.456491) (xy -3.33408 0.380174) (xy -3.342728 0.290694)
    (xy -3.348474 0.189245) (xy -3.35121 0.077024) (xy -3.350969 0.000015) (xy -2.497667 0.000015)
    (xy -2.497477 0.071335) (xy -2.496936 0.13676) (xy -2.496088 0.194472) (xy -2.494974 0.242655)
    (xy -2.493637 0.279492) (xy -2.49212 0.303165) (xy -2.490466 0.311858) (xy -2.490338 0.311855)
    (xy -2.481553 0.307105) (xy -2.459811 0.294842) (xy -2.426808 0.276038) (xy -2.384241 0.251664)
    (xy -2.333809 0.222694) (xy -2.277208 0.190097) (xy -2.219532 0.156809) (xy -2.146804 0.114582)
    (xy -2.087906 0.079888) (xy -2.041838 0.052088) (xy -2.007601 0.030542) (xy -1.984192 0.014613)
    (xy -1.970614 0.00366) (xy -1.965864 -0.002956) (xy -1.96651 -0.004858) (xy -1.976208 -0.011266)
    (xy -1.998759 -0.024971) (xy -2.032307 -0.044882) (xy -2.074995 -0.069909) (xy -2.124968 -0.098959)
    (xy -2.180368 -0.130943) (xy -2.2098 -0.147852) (xy -2.268197 -0.181374) (xy -2.322991 -0.212877)
    (xy -2.372148 -0.241188) (xy -2.413636 -0.265135) (xy -2.44542 -0.283544) (xy -2.465468 -0.295243)
    (xy -2.47015 -0.298025) (xy -2.497667 -0.314648) (xy -2.497667 0.000015) (xy -3.350969 0.000015)
    (xy -3.350828 -0.044773) (xy -3.350052 -0.084667) (xy -3.346676 -0.192896) (xy -3.341779 -0.285731)
    (xy -3.335093 -0.364665) (xy -3.32635 -0.431189) (xy -3.315282 -0.486797) (xy -3.301623 -0.532981)
    (xy -3.285103 -0.571233) (xy -3.265456 -0.603047) (xy -3.254655 -0.616682) (xy -3.235582 -0.637135)
    (xy -3.214739 -0.655251) (xy -3.191048 -0.671168) (xy -3.163431 -0.685022) (xy -3.130813 -0.696951)
    (xy -3.092115 -0.707091) (xy -3.04626 -0.71558) (xy -2.992171 -0.722555) (xy -2.928771 -0.728152)
    (xy -2.854983 -0.73251) (xy -2.769729 -0.735764) (xy -2.671933 -0.738053) (xy -2.560516 -0.739513)
    (xy -2.434403 -0.740281) (xy -2.292515 -0.740494) (xy -2.281766 -0.740492)) (layer F.SilkS) (width 0.01))
  (fp_poly (pts (xy -0.025781 -0.308597) (xy 0.003607 -0.306928) (xy 0.025992 -0.302995) (xy 0.046335 -0.295897)
    (xy 0.069599 -0.284729) (xy 0.071734 -0.283634) (xy 0.109275 -0.260733) (xy 0.140347 -0.233105)
    (xy 0.165458 -0.199162) (xy 0.185117 -0.157318) (xy 0.199835 -0.105984) (xy 0.210119 -0.043574)
    (xy 0.21648 0.0315) (xy 0.219426 0.120825) (xy 0.219774 0.1778) (xy 0.218734 0.263991)
    (xy 0.215658 0.335629) (xy 0.210236 0.395003) (xy 0.202159 0.444406) (xy 0.191116 0.486128)
    (xy 0.176797 0.522461) (xy 0.171742 0.532798) (xy 0.141504 0.577256) (xy 0.101954 0.613894)
    (xy 0.057651 0.638762) (xy 0.044236 0.643302) (xy 0.009024 0.650258) (xy -0.035356 0.65477)
    (xy -0.082155 0.656543) (xy -0.124628 0.655283) (xy -0.151284 0.651825) (xy -0.202163 0.636625)
    (xy -0.245248 0.613554) (xy -0.280937 0.581591) (xy -0.309631 0.539713) (xy -0.331729 0.486897)
    (xy -0.347631 0.422121) (xy -0.357735 0.344361) (xy -0.362443 0.252595) (xy -0.362228 0.173566)
    (xy -0.148166 0.173566) (xy -0.147897 0.235417) (xy -0.147139 0.29384) (xy -0.145968 0.346022)
    (xy -0.14446 0.38915) (xy -0.142691 0.42041) (xy -0.141138 0.43498) (xy -0.129468 0.471731)
    (xy -0.110308 0.498546) (xy -0.086375 0.513926) (xy -0.060391 0.516376) (xy -0.035073 0.504399)
    (xy -0.027687 0.497417) (xy -0.017721 0.484798) (xy -0.009741 0.469553) (xy -0.003534 0.449778)
    (xy 0.001112 0.423572) (xy 0.004407 0.389031) (xy 0.006565 0.344252) (xy 0.007797 0.287333)
    (xy 0.008315 0.216372) (xy 0.008372 0.173566) (xy 0.008023 0.098538) (xy 0.007013 0.033013)
    (xy 0.005398 -0.021352) (xy 0.003235 -0.0629) (xy 0.00058 -0.089975) (xy -0.000859 -0.097367)
    (xy -0.017185 -0.135317) (xy -0.039664 -0.159149) (xy -0.0654 -0.16906) (xy -0.091499 -0.165247)
    (xy -0.115066 -0.147905) (xy -0.133205 -0.117231) (xy -0.141138 -0.087847) (xy -0.143062 -0.068105)
    (xy -0.144786 -0.034245) (xy -0.146232 0.01092) (xy -0.147326 0.064577) (xy -0.147993 0.123911)
    (xy -0.148166 0.173566) (xy -0.362228 0.173566) (xy -0.362152 0.145801) (xy -0.36127 0.1143)
    (xy -0.356393 0.02186) (xy -0.347877 -0.055548) (xy -0.335064 -0.119563) (xy -0.317297 -0.171823)
    (xy -0.293915 -0.213965) (xy -0.264262 -0.247627) (xy -0.227677 -0.274448) (xy -0.198966 -0.289403)
    (xy -0.176033 -0.298618) (xy -0.152703 -0.304442) (xy -0.124083 -0.307596) (xy -0.085281 -0.308807)
    (xy -0.067135 -0.308907) (xy -0.025781 -0.308597)) (layer F.SilkS) (width 0.01))
  (fp_poly (pts (xy 0.905934 0.643467) (xy 0.737948 0.643467) (xy 0.732015 0.588069) (xy 0.728127 0.560438)
    (xy 0.723655 0.54142) (xy 0.719602 0.535153) (xy 0.711272 0.542791) (xy 0.69666 0.55985)
    (xy 0.684566 0.575271) (xy 0.646362 0.612673) (xy 0.598484 0.63982) (xy 0.545345 0.655244)
    (xy 0.491358 0.657474) (xy 0.4572 0.650944) (xy 0.412515 0.630073) (xy 0.378378 0.596866)
    (xy 0.354328 0.552496) (xy 0.349819 0.540843) (xy 0.346053 0.529399) (xy 0.342951 0.516567)
    (xy 0.340433 0.500745) (xy 0.338418 0.480335) (xy 0.336828 0.453737) (xy 0.335583 0.419353)
    (xy 0.334603 0.375583) (xy 0.333807 0.320827) (xy 0.333117 0.253486) (xy 0.332453 0.17196)
    (xy 0.331946 0.103716) (xy 0.329021 -0.296333) (xy 0.435118 -0.296333) (xy 0.541214 -0.296334)
    (xy 0.543657 0.088019) (xy 0.544266 0.178897) (xy 0.544878 0.254359) (xy 0.545564 0.315921)
    (xy 0.546394 0.365101) (xy 0.547439 0.403415) (xy 0.548767 0.43238) (xy 0.55045 0.453514)
    (xy 0.552556 0.468333) (xy 0.555157 0.478353) (xy 0.558322 0.485092) (xy 0.562122 0.490067)
    (xy 0.562229 0.490186) (xy 0.586661 0.505646) (xy 0.616874 0.508067) (xy 0.648214 0.497746)
    (xy 0.667971 0.483436) (xy 0.694267 0.458873) (xy 0.694267 -0.296334) (xy 0.905934 -0.296334)
    (xy 0.905934 0.643467)) (layer F.SilkS) (width 0.01))
  (fp_poly (pts (xy 1.627387 0.082677) (xy 1.628016 0.17341) (xy 1.628673 0.248749) (xy 1.629425 0.310233)
    (xy 1.630338 0.359399) (xy 1.631478 0.397789) (xy 1.632914 0.426939) (xy 1.634711 0.44839)
    (xy 1.636936 0.46368) (xy 1.639656 0.474347) (xy 1.642938 0.481932) (xy 1.644845 0.485102)
    (xy 1.666028 0.503655) (xy 1.693995 0.509589) (xy 1.724326 0.502978) (xy 1.752599 0.483898)
    (xy 1.753251 0.483251) (xy 1.778 0.458502) (xy 1.778 -0.296334) (xy 1.989667 -0.296334)
    (xy 1.989667 0.64408) (xy 1.907117 0.641656) (xy 1.824567 0.639233) (xy 1.817035 0.586317)
    (xy 1.812088 0.558969) (xy 1.806613 0.539854) (xy 1.802219 0.5334) (xy 1.795193 0.539928)
    (xy 1.794934 0.54227) (xy 1.789329 0.552322) (xy 1.774625 0.570208) (xy 1.753985 0.592088)
    (xy 1.75364 0.592433) (xy 1.704731 0.630671) (xy 1.650883 0.652737) (xy 1.592567 0.658506)
    (xy 1.538085 0.650044) (xy 1.498967 0.631294) (xy 1.465522 0.598676) (xy 1.440286 0.554962)
    (xy 1.433201 0.535452) (xy 1.429627 0.522531) (xy 1.426662 0.50789) (xy 1.42425 0.489907)
    (xy 1.422335 0.46696) (xy 1.420862 0.437425) (xy 1.419775 0.399681) (xy 1.419018 0.352105)
    (xy 1.418536 0.293073) (xy 1.418273 0.220964) (xy 1.418173 0.134155) (xy 1.418167 0.097366)
    (xy 1.418167 -0.2921) (xy 1.521553 -0.294475) (xy 1.62494 -0.296849) (xy 1.627387 0.082677)) (layer F.SilkS) (width 0.01))
  (fp_poly (pts (xy 2.319867 -0.200849) (xy 2.35585 -0.239063) (xy 2.394681 -0.274569) (xy 2.433747 -0.296743)
    (xy 2.478614 -0.308326) (xy 2.501518 -0.310765) (xy 2.535905 -0.311585) (xy 2.562354 -0.30701)
    (xy 2.589412 -0.295514) (xy 2.590732 -0.294835) (xy 2.620643 -0.274889) (xy 2.645551 -0.24781)
    (xy 2.665795 -0.21227) (xy 2.681719 -0.166945) (xy 2.693662 -0.110507) (xy 2.701967 -0.041629)
    (xy 2.706974 0.041014) (xy 2.709026 0.138749) (xy 2.709117 0.1651) (xy 2.707548 0.267916)
    (xy 2.702555 0.355446) (xy 2.693889 0.429037) (xy 2.681302 0.490037) (xy 2.664544 0.539794)
    (xy 2.643367 0.579653) (xy 2.628968 0.598759) (xy 2.590042 0.631752) (xy 2.542722 0.650941)
    (xy 2.489385 0.655593) (xy 2.458097 0.651638) (xy 2.410865 0.637342) (xy 2.370986 0.613196)
    (xy 2.343261 0.587863) (xy 2.312824 0.556526) (xy 2.303693 0.589413) (xy 2.297816 0.613027)
    (xy 2.294675 0.630412) (xy 2.294514 0.632883) (xy 2.289451 0.637969) (xy 2.273027 0.641273)
    (xy 2.243307 0.643025) (xy 2.205567 0.643467) (xy 2.116667 0.643467) (xy 2.116667 0.116021)
    (xy 2.321111 0.116021) (xy 2.321432 0.180855) (xy 2.321652 0.2071) (xy 2.3241 0.469233)
    (xy 2.352869 0.488616) (xy 2.389001 0.505384) (xy 2.422901 0.505417) (xy 2.439753 0.498809)
    (xy 2.453176 0.485928) (xy 2.467953 0.463536) (xy 2.47471 0.450126) (xy 2.480571 0.435697)
    (xy 2.485091 0.420079) (xy 2.488503 0.400749) (xy 2.491041 0.375187) (xy 2.492938 0.340869)
    (xy 2.494427 0.295274) (xy 2.49574 0.235879) (xy 2.496059 0.219118) (xy 2.496886 0.122341)
    (xy 2.495416 0.041625) (xy 2.491585 -0.023754) (xy 2.48533 -0.074521) (xy 2.476587 -0.111401)
    (xy 2.465292 -0.135117) (xy 2.465036 -0.135467) (xy 2.445883 -0.152056) (xy 2.417458 -0.159013)
    (xy 2.415355 -0.159184) (xy 2.390453 -0.15863) (xy 2.371507 -0.150103) (xy 2.35514 -0.135571)
    (xy 2.337255 -0.112486) (xy 2.325475 -0.087795) (xy 2.32409 -0.082221) (xy 2.322949 -0.067123)
    (xy 2.32206 -0.037422) (xy 2.321445 0.004554) (xy 2.321122 0.056478) (xy 2.321111 0.116021)
    (xy 2.116667 0.116021) (xy 2.116667 -0.6858) (xy 2.319867 -0.6858) (xy 2.319867 -0.200849)) (layer F.SilkS) (width 0.01))
  (fp_poly (pts (xy 3.135107 -0.308488) (xy 3.164088 -0.306515) (xy 3.186873 -0.301938) (xy 3.208827 -0.293759)
    (xy 3.230033 -0.283634) (xy 3.26359 -0.264137) (xy 3.290793 -0.241331) (xy 3.312324 -0.213297)
    (xy 3.328868 -0.178115) (xy 3.341108 -0.133867) (xy 3.349729 -0.078633) (xy 3.355414 -0.010496)
    (xy 3.358847 0.072465) (xy 3.359005 0.078316) (xy 3.363428 0.245533) (xy 3.005667 0.245533)
    (xy 3.005837 0.306917) (xy 3.008412 0.378806) (xy 3.015709 0.434542) (xy 3.02775 0.474242)
    (xy 3.043845 0.497417) (xy 3.073944 0.513559) (xy 3.105991 0.513719) (xy 3.136361 0.497904)
    (xy 3.137129 0.49725) (xy 3.15012 0.482824) (xy 3.15921 0.463147) (xy 3.166283 0.433442)
    (xy 3.169257 0.415877) (xy 3.179044 0.35372) (xy 3.221472 0.35882) (xy 3.256877 0.361946)
    (xy 3.295846 0.36379) (xy 3.309438 0.363993) (xy 3.354976 0.364067) (xy 3.351159 0.430008)
    (xy 3.340514 0.495433) (xy 3.317152 0.550717) (xy 3.281743 0.594961) (xy 3.234955 0.627269)
    (xy 3.192064 0.643324) (xy 3.144185 0.652129) (xy 3.090462 0.655881) (xy 3.038771 0.654324)
    (xy 3.00556 0.649402) (xy 2.957534 0.63458) (xy 2.916922 0.61278) (xy 2.883292 0.58287)
    (xy 2.856212 0.543716) (xy 2.835248 0.494185) (xy 2.819968 0.433143) (xy 2.809939 0.359457)
    (xy 2.804729 0.271994) (xy 2.803905 0.169619) (xy 2.804729 0.12329) (xy 2.804874 0.118533)
    (xy 3.00311 0.118533) (xy 3.16909 0.118533) (xy 3.164094 0.010583) (xy 3.160299 -0.050323)
    (xy 3.154746 -0.096251) (xy 3.146599 -0.129131) (xy 3.13502 -0.150894) (xy 3.119173 -0.163471)
    (xy 3.098221 -0.168791) (xy 3.0861 -0.169333) (xy 3.062399 -0.166812) (xy 3.044206 -0.157961)
    (xy 3.030682 -0.14085) (xy 3.020991 -0.113549) (xy 3.014297 -0.074127) (xy 3.009762 -0.020655)
    (xy 3.008106 0.010583) (xy 3.00311 0.118533) (xy 2.804874 0.118533) (xy 2.806949 0.050746)
    (xy 2.810069 -0.007778) (xy 2.814573 -0.055193) (xy 2.820943 -0.094406) (xy 2.829663 -0.128327)
    (xy 2.841216 -0.159865) (xy 2.856087 -0.191928) (xy 2.857612 -0.194955) (xy 2.88852 -0.238563)
    (xy 2.931463 -0.274473) (xy 2.978819 -0.297839) (xy 3.000916 -0.302587) (xy 3.034376 -0.30632)
    (xy 3.073633 -0.308507) (xy 3.094567 -0.308858) (xy 3.135107 -0.308488)) (layer F.SilkS) (width 0.01))
  (fp_poly (pts (xy -0.375193 -0.642911) (xy -0.343134 -0.641396) (xy -0.321398 -0.639152) (xy -0.313268 -0.636411)
    (xy -0.313266 -0.636371) (xy -0.315489 -0.627077) (xy -0.321873 -0.603033) (xy -0.331991 -0.565787)
    (xy -0.345415 -0.51689) (xy -0.361717 -0.457891) (xy -0.380472 -0.390339) (xy -0.401251 -0.315783)
    (xy -0.423626 -0.235773) (xy -0.431778 -0.206687) (xy -0.55029 0.2159) (xy -0.550312 0.429683)
    (xy -0.550333 0.643467) (xy -0.762 0.643467) (xy -0.762 0.218512) (xy -0.876847 -0.197661)
    (xy -0.899286 -0.278963) (xy -0.920445 -0.3556) (xy -0.939879 -0.425967) (xy -0.957144 -0.488457)
    (xy -0.971798 -0.541467) (xy -0.983396 -0.583391) (xy -0.991495 -0.612625) (xy -0.995652 -0.627562)
    (xy -0.996035 -0.628916) (xy -0.996664 -0.635185) (xy -0.992513 -0.639317) (xy -0.980959 -0.641646)
    (xy -0.959376 -0.642503) (xy -0.925142 -0.642224) (xy -0.896018 -0.641616) (xy -0.79166 -0.639234)
    (xy -0.777199 -0.5715) (xy -0.76582 -0.517965) (xy -0.753176 -0.458075) (xy -0.739766 -0.394227)
    (xy -0.726087 -0.328823) (xy -0.712638 -0.264259) (xy -0.699916 -0.202934) (xy -0.688421 -0.147248)
    (xy -0.678649 -0.0996) (xy -0.671098 -0.062387) (xy -0.666268 -0.038009) (xy -0.664942 -0.030885)
    (xy -0.660636 -0.011185) (xy -0.656756 -0.001766) (xy -0.655855 -0.001723) (xy -0.652963 -0.010938)
    (xy -0.647757 -0.033294) (xy -0.641012 -0.065282) (xy -0.634571 -0.097838) (xy -0.628429 -0.128719)
    (xy -0.619817 -0.170567) (xy -0.609288 -0.220827) (xy -0.597395 -0.276939) (xy -0.58469 -0.336349)
    (xy -0.571727 -0.396498) (xy -0.559057 -0.454829) (xy -0.547234 -0.508786) (xy -0.53681 -0.555811)
    (xy -0.528339 -0.593348) (xy -0.522372 -0.61884) (xy -0.519832 -0.62865) (xy -0.51609 -0.634993)
    (xy -0.507517 -0.63924) (xy -0.49123 -0.641797) (xy -0.464346 -0.643068) (xy -0.423978 -0.643459)
    (xy -0.414296 -0.643467) (xy -0.375193 -0.642911)) (layer F.SilkS) (width 0.01))
  (fp_poly (pts (xy 1.166284 -0.641454) (xy 1.477434 -0.639234) (xy 1.479857 -0.556683) (xy 1.48228 -0.474133)
    (xy 1.27 -0.474133) (xy 1.27 0.643467) (xy 1.0668 0.643467) (xy 1.0668 -0.474133)
    (xy 0.855134 -0.474133) (xy 0.855134 -0.643675) (xy 1.166284 -0.641454)) (layer F.SilkS) (width 0.01))
)
